module gitlab.com/levidurfee/msgs

go 1.13

require (
	github.com/go-sql-driver/mysql v1.4.1
	github.com/jinzhu/gorm v1.9.11
	github.com/joho/godotenv v1.3.0
	github.com/satori/go.uuid v1.2.0 // indirect
	golang.org/x/crypto v0.0.0-20190325154230-a5d413f7728c
)
